276 260 1
345 260 1
414 260 1
483 260 1
552 260 1
621 260 1
690 260 1
759 260 1
828 260 1
897 260 1
966 260 1
1037 260 1
1106 260 1
1175 260 1
1244 260 1
1313 260 1
1382 260 1
1451 260 1
1520 260 1
1589 260 1
1658 260 1
1727 260 1
1796 260 1
1865 260 1
1936 260 1
2005 260 1
2074 260 1
2143 260 1
2212 260 1
2281 260 1
2350 260 1
2421 260 1
2490 260 1
2559 260 1
2628 260 1
2697 260 1
2697 208 1
2697 156 1
2697 104 1
2697 52 1
2697 0 1
2420 208 1
2420 156 1
2213 208 1
1937 208 1
1659 208 1
1659 156 1
