483 624 1
552 624 1
621 624 1
414 624 1
345 624 1
276 572 1
276 520 1
276 468 1
276 416 1
276 364 1
276 312 1
276 260 1
276 208 1
276 156 1
345 104 1
414 104 1
483 104 1
552 104 1
621 104 1
690 104 1
759 104 1
759 156 1
759 208 1
690 676 1
759 572 1
759 520 1
759 468 1
759 416 1
759 364 1
759 312 1
759 260 1
276 624 1
759 676 1
828 676 1
828 572 1
966 676 1
967 624 1
967 572 1
967 520 1
967 468 1
898 468 1
829 364 1
898 364 1
1036 468 1
1036 416 1
1036 364 1
1036 312 1
1036 260 1
967 260 1
898 260 1
207 156 1
138 156 1
69 156 1
0 156 1
0 104 1
0 52 1
0 0 1
69 0 1
138 0 1
207 0 1
276 0 1
345 0 1
414 0 1
483 0 1
552 0 1
621 0 1
690 0 1
759 0 1
828 0 1
897 0 1
898 208 1
967 156 1
967 104 1
1106 364 1
1175 364 1
1244 416 1
1313 468 1
1382 520 1
1382 572 1
1451 572 1
1520 572 1
1589 572 1
1659 572 1
1659 520 1
1659 468 1
1728 468 1
1797 468 1
1797 416 1
1797 364 1
1866 364 1
1935 364 1
1935 312 1
2005 468 1
2074 468 1
2143 468 1
1729 624 1
1798 624 1
1867 624 1
1936 624 1
2005 624 1
2074 624 1
2143 624 1
2212 624 1
2281 624 1
2350 624 1
2419 624 1

2419 208 1
2559 260 1
2628 260 1
2697 260 1
2766 260 1
2835 260 1
2904 260 1
2973 260 1
3043 156 1
3112 52 1
3250 208 1
3319 208 1
3388 208 1
3457 208 1
3526 208 1
3666 312 1
3735 312 1
3804 312 1
3804 364 1
3804 416 1
3873 312 1
3873 364 1
3873 416 1
3942 416 1
3942 364 1
3942 312 1
4011 312 1
4080 312 1
4149 312 1
3873 468 1
4219 364 1
4288 416 1
4357 416 1
4426 364 1
4495 312 1
4564 260 1
4635 208 1
4704 156 1
4773 156 1
4842 156 1
4980 156 1
5118 156 1
4911 156 1
5049 156 1
