0 624 50
69 624 51
138 624 52
207 624 53
276 624 54
345 624 55
414 624 56
552 624 57
552 624 58
621 624 59
690 624 60
759 624 61
828 624 62
897 624 63
966 624 64
483 624 65
1037 624 66
1106 624 67
1175 624 68
1244 624 69
1313 624 70
1382 624 71
1451 624 72
1520 624 73
1589 624 74
1658 624 75
1727 624 76
1796 624 77
1867 624 78
1936 624 79
2005 624 80
2074 624 81
2143 624 82
2212 624 83
2281 624 84
2350 624 85
2419 624 86
276 260 1
345 260 1
414 260 1
483 260 1
552 260 1
621 260 1
690 260 1
759 260 1
828 260 1
897 260 1
966 260 1
1037 260 1
1106 260 1
1175 260 1
1244 260 1
1313 260 1
1382 260 1
1451 260 1
1520 260 1
1589 260 1
1658 260 1
1727 260 1
1796 260 1
1865 260 1
1936 260 1
2005 260 1
2074 260 1
2143 260 1
2212 260 1
2281 260 1
2350 260 1
2421 260 1
2490 260 1
2559 260 1
2628 260 1
2697 260 1
2697 208 1
2697 156 1
2697 104 1
2697 52 1
2697 0 1
2420 208 1
2420 156 1
2213 208 1
1937 208 1
1659 208 1
1659 156 1
